Homework4
…
#nested
nested <- arrange(filter(select(as_tibble(iris), starts_with("Petal"), Species),
Petal.Length < 1.55), Species)

#Print tibble
nested

# A tibble: 37 × 3
   Petal.Length Petal.Width Species
          <dbl>       <dbl> <fct>  
 1          1.4         0.2 setosa 
 2          1.4         0.2 setosa 
 3          1.3         0.2 setosa 
 4          1.5         0.2 setosa 
 5          1.4         0.2 setosa 
 6          1.4         0.3 setosa 
 7          1.5         0.2 setosa 
 8          1.4         0.2 setosa 
 9          1.5         0.1 setosa 
10          1.5         0.2 setosa 
# ℹ 27 more rows

#chained
#filter first since, in theory (see notes) you might not subset with that variable
#same with arrange, though more likely to keep variable
chained <- as_tibble(iris) |> filter(Petal.Length < 1.55) |> arrange(Species) |> select(starts_with("Petal"), Species)

#Print tibble
chained

# A tibble: 37 × 3
   Petal.Length Petal.Width Species
          <dbl>       <dbl> <fct>  
 1          1.4         0.2 setosa 
 2          1.4         0.2 setosa 
 3          1.3         0.2 setosa 
 4          1.5         0.2 setosa 
 5          1.4         0.2 setosa 
 6          1.4         0.3 setosa 
 7          1.5         0.2 setosa 
 8          1.4         0.2 setosa 
 9          1.5         0.1 setosa 
10          1.5         0.2 setosa 
# ℹ 27 more rows
…
Rows: 214 Columns: 11

── Column specification ────────────────────────────────────────────────────────
Delimiter: ","
dbl (11): Id, RI, Na, Mg, Al, Si, K, Ca, Ba, Fe, Type_of_Glass

ℹ Use `spec()` to retrieve the full column specification for this data.
ℹ Specify the column types or set `show_col_types = FALSE` to quiet this message.

#Print the tibble
glass_data

# A tibble: 214 × 11
      Id    RI    Na    Mg    Al    Si     K    Ca    Ba    Fe Type_of_Glass
   <dbl> <dbl> <dbl> <dbl> <dbl> <dbl> <dbl> <dbl> <dbl> <dbl>         <dbl>
 1     1  1.52  13.6  4.49  1.1   71.8  0.06  8.75     0  0                1
 2     2  1.52  13.9  3.6   1.36  72.7  0.48  7.83     0  0                1
 3     3  1.52  13.5  3.55  1.54  73.0  0.39  7.78     0  0                1
 4     4  1.52  13.2  3.69  1.29  72.6  0.57  8.22     0  0                1
 5     5  1.52  13.3  3.62  1.24  73.1  0.55  8.07     0  0                1
 6     6  1.52  12.8  3.61  1.62  73.0  0.64  8.07     0  0.26             1
 7     7  1.52  13.3  3.6   1.14  73.1  0.58  8.17     0  0                1
 8     8  1.52  13.2  3.61  1.05  73.2  0.57  8.24     0  0                1
 9     9  1.52  14.0  3.58  1.37  72.1  0.56  8.3      0  0                1
10    10  1.52  13    3.6   1.36  73.0  0.57  8.4      0  0.11             1
# ℹ 204 more rows

We start a chain to overwrite the Type_of_glass variable using mutate(). Then, we continue our chain and keep only observations where the Fe variable is less than 0.2 and the Type of Glass is either “tableware” or “headlamps”. Finally, we print the tibble for confirmation.

#Chain to obtain the desired tibble
glass_data <- glass_data |> mutate(Type_of_Glass = factor(glass_data$Type_of_Glass,labels=c("building_windows_float_processed", "building_windows_non_float_processed", "vehicle_windows_float_processed", "containers", "tableware", "headlamps"))) |> filter(Fe < 0.2, Type_of_Glass %in% c("tableware", "headlamps"))

#Print the tibble
glass_data

# A tibble: 38 × 11
      Id    RI    Na    Mg    Al    Si     K    Ca    Ba    Fe Type_of_Glass
   <dbl> <dbl> <dbl> <dbl> <dbl> <dbl> <dbl> <dbl> <dbl> <dbl> <fct>        
 1   177  1.52  14    2.39  1.56  72.4  0     9.57  0        0 tableware    
 2   178  1.52  13.8  2.41  1.19  72.8  0     9.77  0        0 tableware    
 3   179  1.52  14.5  2.24  1.62  72.4  0     9.26  0        0 tableware    
 4   180  1.52  14.1  2.19  1.66  72.7  0     9.32  0        0 tableware    
 5   181  1.51  14.4  1.74  1.54  74.6  0     7.59  0        0 tableware    
 6   182  1.52  15.0  0.78  1.74  72.5  0     9.95  0        0 tableware    
 7   183  1.52  14.2  0     2.09  72.7  0    10.9   0        0 tableware    
 8   184  1.52  14.6  0     0.56  73.5  0    11.2   0        0 tableware    
 9   185  1.51  17.4  0     0.34  75.4  0     6.65  0        0 tableware    
10   186  1.51  13.7  3.2   1.81  72.8  1.76  5.43  1.19     0 headlamps    
# ℹ 28 more rows
…
#Print the tibble
yeast_data

# A tibble: 1,484 × 10
   seq_name     mcg   gvh   alm   mit   erl   pox   vac   nuc class
   <chr>      <dbl> <dbl> <dbl> <dbl> <dbl> <dbl> <dbl> <dbl> <chr>
 1 ADT1_YEAST  0.58  0.61  0.47  0.13   0.5   0    0.48  0.22 MIT  
 2 ADT2_YEAST  0.43  0.67  0.48  0.27   0.5   0    0.53  0.22 MIT  
 3 ADT3_YEAST  0.64  0.62  0.49  0.15   0.5   0    0.53  0.22 MIT  
 4 AAR2_YEAST  0.58  0.44  0.57  0.13   0.5   0    0.54  0.22 NUC  
 5 AATM_YEAST  0.42  0.44  0.48  0.54   0.5   0    0.48  0.22 MIT  
 6 AATC_YEAST  0.51  0.4   0.56  0.17   0.5   0.5  0.49  0.22 CYT  
 7 ABC1_YEAST  0.5   0.54  0.48  0.65   0.5   0    0.53  0.22 MIT  
 8 BAF1_YEAST  0.48  0.45  0.59  0.2    0.5   0    0.58  0.34 NUC  
 9 ABF2_YEAST  0.55  0.5   0.66  0.36   0.5   0    0.49  0.22 MIT  
10 ABP1_YEAST  0.4   0.39  0.6   0.15   0.5   0    0.58  0.3  CYT  
# ℹ 1,474 more rows

We start a chain that removes the seq_name and nuc columns. Then, we continue the chain to add columns corresponding to the mean and median of each numeric variable (mcg, gvh, alm, mit, erl, pox, and vac) at each class grouping (see the across() function as we did in the dplyr video!). Finally, we print the tibble for confirmation.

#Chain to obtain the desired tibble
yeast_data <- yeast_data |> select(!c("seq_name","nuc")) |> group_by(class) |> mutate(across(where(is.numeric),mean,.names="mean_{ .col}")) |> mutate(across(where(is.numeric),median,.names="median_{ .col}"))

#Print the tibble
yeast_data

# A tibble: 1,484 × 29
# Groups:   class [10]
     mcg   gvh   alm   mit   erl   pox   vac class mean_mcg mean_gvh mean_alm
   <dbl> <dbl> <dbl> <dbl> <dbl> <dbl> <dbl> <chr>    <dbl>    <dbl>    <dbl>
 1  0.58  0.61  0.47  0.13   0.5   0    0.48 MIT      0.521    0.533    0.517
 2  0.43  0.67  0.48  0.27   0.5   0    0.53 MIT      0.521    0.533    0.517
 3  0.64  0.62  0.49  0.15   0.5   0    0.53 MIT      0.521    0.533    0.517
 4  0.58  0.44  0.57  0.13   0.5   0    0.54 NUC      0.452    0.456    0.529
 5  0.42  0.44  0.48  0.54   0.5   0    0.48 MIT      0.521    0.533    0.517
 6  0.51  0.4   0.56  0.17   0.5   0.5  0.49 CYT      0.481    0.470    0.535
 7  0.5   0.54  0.48  0.65   0.5   0    0.53 MIT      0.521    0.533    0.517
 8  0.48  0.45  0.59  0.2    0.5   0    0.58 NUC      0.452    0.456    0.529
 9  0.55  0.5   0.66  0.36   0.5   0    0.49 MIT      0.521    0.533    0.517
10  0.4   0.39  0.6   0.15   0.5   0    0.58 CYT      0.481    0.470    0.535
# ℹ 1,474 more rows
# ℹ 18 more variables: mean_mit <dbl>, mean_erl <dbl>, mean_pox <dbl>,
#   mean_vac <dbl>, median_mcg <dbl>, median_gvh <dbl>, median_alm <dbl>,
#   median_mit <dbl>, median_erl <dbl>, median_pox <dbl>, median_vac <dbl>,
#   median_mean_mcg <dbl>, median_mean_gvh <dbl>, median_mean_alm <dbl>,
#   median_mean_mit <dbl>, median_mean_erl <dbl>, median_mean_pox <dbl>,
#   median_mean_vac <dbl>
…
#Identify the different sheets in the file
sheets <- excel_sheets("white-wine.xlsx")
sheets

[1] "white-wine" "variables" 

#Import the data from the first sheet
white_wine <- read_excel("white-wine.xlsx",sheet=sheets[1])

#Print the tibble
white_wine

# A tibble: 4,898 × 12
   `fixed acidity` `volatile acidity` `citric acid` `residual sugar` chlorides
             <dbl>              <dbl>         <dbl>            <dbl>     <dbl>
 1               7               0.27          0.36             20.7     0.045
 2              63               0.3           0.34              1.6     0.049
 3              81               0.28          0.4               6.9     0.05 
 4              72               0.23          0.32              8.5     0.058
 5              72               0.23          0.32              8.5     0.058
 6              81               0.28          0.4               6.9     0.05 
 7              62               0.32          0.16              7       0.045
 8               7               0.27          0.36             20.7     0.045
 9              63               0.3           0.34              1.6     0.049
10              81               0.22          0.43              1.5     0.044
# ℹ 4,888 more rows
# ℹ 7 more variables: `free sulfur dioxide` <dbl>,
#   `total sulfur dioxide` <dbl>, density <dbl>, pH <dbl>, sulphates <dbl>,
#   alcohol <dbl>, quality <dbl>
…
#Verify that the column names have been changed
colnames(white_wine)

 [1] "fixed_acidity"        "volatile_acidity"     "citric_acid"         
 [4] "residual_sugar"       "chlorides"            "free_sulfur_dioxide" 
 [7] "total_sulfur_dioxide" "density"              "pH"                  
[10] "sulphates"            "alcohol"              "quality"             

#Add a type column to indicate that these are white wines
white_wine <- white_wine |> mutate(type="white")

#Print the tibble
white_wine

# A tibble: 4,898 × 13
   fixed_acidity volatile_acidity citric_acid residual_sugar chlorides
           <dbl>            <dbl>       <dbl>          <dbl>     <dbl>
 1             7             0.27        0.36           20.7     0.045
 2            63             0.3         0.34            1.6     0.049
 3            81             0.28        0.4             6.9     0.05 
 4            72             0.23        0.32            8.5     0.058
 5            72             0.23        0.32            8.5     0.058
 6            81             0.28        0.4             6.9     0.05 
 7            62             0.32        0.16            7       0.045
 8             7             0.27        0.36           20.7     0.045
 9            63             0.3         0.34            1.6     0.049
10            81             0.22        0.43            1.5     0.044
# ℹ 4,888 more rows
# ℹ 8 more variables: free_sulfur_dioxide <dbl>, total_sulfur_dioxide <dbl>,
#   density <dbl>, pH <dbl>, sulphates <dbl>, alcohol <dbl>, quality <dbl>,
#   type <chr>
…
ℹ Use `spec()` to retrieve the full column specification for this data.
ℹ Specify the column types or set `show_col_types = FALSE` to quiet this message.

#Replace the variable names as done above
for (i in 1:ncol(red_wine)){
  colnames(red_wine)[i] = ww_altvarnames$Variables[i]
}

#Append a column denoting the type as “red”
red_wine <- red_wine |> mutate(type="red")

#Print the tibble
red_wine

# A tibble: 1,599 × 13
   fixed_acidity volatile_acidity citric_acid residual_sugar chlorides
           <dbl>            <dbl>       <dbl>          <dbl>     <dbl>
 1           7.4             0.7         0               1.9     0.076
 2           7.8             0.88        0               2.6     0.098
 3           7.8             0.76        0.04            2.3     0.092
 4          11.2             0.28        0.56            1.9     0.075
 5           7.4             0.7         0               1.9     0.076
 6           7.4             0.66        0               1.8     0.075
 7           7.9             0.6         0.06            1.6     0.069
 8           7.3             0.65        0               1.2     0.065
 9           7.8             0.58        0.02            2       0.073
10           7.5             0.5         0.36            6.1     0.071
# ℹ 1,589 more rows
# ℹ 8 more variables: free_sulfur_dioxide <dbl>, total_sulfur_dioxide <dbl>,
#   density <dbl>, pH <dbl>, sulphates <dbl>, alcohol <dbl>, quality <dbl>,
#   type <chr>

Combine Wine Data Sets

We concatenate the white wine and red wine data sets. Print the tibble to inspect.

#Combine these two data sets into one data set
wine <- dplyr::bind_rows(white_wine,red_wine)

#Print the tibble
wine

# A tibble: 6,497 × 13
   fixed_acidity volatile_acidity citric_acid residual_sugar chlorides
           <dbl>            <dbl>       <dbl>          <dbl>     <dbl>
 1             7             0.27        0.36           20.7     0.045
 2            63             0.3         0.34            1.6     0.049
 3            81             0.28        0.4             6.9     0.05 
 4            72             0.23        0.32            8.5     0.058
 5            72             0.23        0.32            8.5     0.058
 6            81             0.28        0.4             6.9     0.05 
 7            62             0.32        0.16            7       0.045
 8             7             0.27        0.36           20.7     0.045
 9            63             0.3         0.34            1.6     0.049
10            81             0.22        0.43            1.5     0.044
# ℹ 6,487 more rows
# ℹ 8 more variables: free_sulfur_dioxide <dbl>, total_sulfur_dioxide <dbl>,
#   density <dbl>, pH <dbl>, sulphates <dbl>, alcohol <dbl>, quality <dbl>,
#   type <chr>

Next, we start a chain on our new combined data object to filter the data to look only at high-quality wines (quality > 6.5) and wines that have a reasonable alcohol value (alcohol < 132). Then, we continue our chain to sort the data from highest quality to lowest. Then, we select only the variables that contain acid, the alcohol variable, the type variable, and the quality variable. Finally, we add the mean and standard deviation of the alcohol variable to the data set for each setting of the quality variable and print the tibble to confirm.

#Use chaining to obtain desired tibble
wine <- wine |> filter(quality > 6.5, alcohol < 132) |> arrange(desc(quality)) |> select(contains("acid"),alcohol,type,quality) |> group_by(quality) |> mutate(mean_alcohol=mean(alcohol),std_dev_alcohol=sd(alcohol))

#Print the tibble
wine

# A tibble: 1,206 × 8
# Groups:   quality [3]
   fixed_acidity volatile_acidity citric_acid alcohol type  quality mean_alcohol
           <dbl>            <dbl>       <dbl>   <dbl> <chr>   <dbl>        <dbl>
 1            91             0.27        0.45     104 white       9        122. 
 2            66             0.36        0.29     124 white       9        122. 
 3            74             0.24        0.36     125 white       9        122. 
 4            69             0.36        0.34     127 white       9        122. 
 5            71             0.26        0.49     129 white       9        122. 
 6            62             0.66        0.48     128 white       8         94.1
 7            62             0.66        0.48     128 white       8         94.1
 8            68             0.26        0.42     105 white       8         94.1
 9            67             0.23        0.31     107 white       8         94.1
10            67             0.23        0.31     107 white       8         94.1
# ℹ 1,196 more rows
# ℹ 1 more variable: std_dev_alcohol <dbl>
…
